<svg width="25" height="24" viewBox="0 0 25 24" fill="none" xmlns="http://www.w3.org/2000/svg">
<path d="M11.4486 16.7301C11.3174 16.7304 11.1873 16.7047 11.066 16.6546C10.9447 16.6045 10.8345 16.531 10.7416 16.4381L6.49963 12.1951C6.40406 12.103 6.3278 11.9927 6.27531 11.8707C6.22282 11.7487 6.19514 11.6175 6.19389 11.4848C6.19264 11.352 6.21785 11.2203 6.26805 11.0974C6.31824 10.9744 6.39242 10.8627 6.48624 10.7688C6.58007 10.6748 6.69166 10.6005 6.81452 10.5501C6.93738 10.4997 7.06904 10.4743 7.20182 10.4754C7.3346 10.4765 7.46584 10.504 7.58788 10.5563C7.70992 10.6086 7.82032 10.6847 7.91263 10.7801L11.4476 14.3151L17.8126 7.95214C18.0001 7.7645 18.2545 7.65903 18.5198 7.65894C18.7851 7.65884 19.0395 7.76413 19.2271 7.95164C19.4148 8.13915 19.5202 8.39351 19.5203 8.65878C19.5204 8.92406 19.4151 9.1785 19.2276 9.36614L12.1556 16.4381C12.0628 16.531 11.9526 16.6045 11.8313 16.6546C11.7099 16.7047 11.5799 16.7304 11.4486 16.7301Z" fill="#2FAB73"/>
</svg>
